<svg width="166" height="120" viewBox="0 0 166 120" fill="none" xmlns="http://www.w3.org/2000/svg">
<path d="M5.5073 27.6333C5.96677 52.0584 4.64 76.4844 1.53691 100.728H3.14139C1.53691 77.5126 -0.0675611 53.8232 4.88183 30.8708C6.06766 25.3292 7.68583 19.8826 9.72245 14.5778C11.3813 10.4453 13.5297 3.25952 18.6694 1.73287C24.4075 -0.0833211 27.6708 6.86557 28.677 11.1297C29.8761 16.1487 30.1978 21.3268 29.6288 26.4488C28.4064 37.9971 22.9908 48.7512 14.3455 56.7976L15.6508 57.7451C16.7931 55.4188 18.6156 53.4679 20.8924 52.1345C23.1692 50.801 25.8003 50.1435 28.4594 50.2435C35.2037 50.3751 39.5004 55.5078 41.2952 61.3512C45.1296 73.9329 41.2952 90.3049 27.9699 95.9377C25.2505 97.1222 19.1589 99.2279 18.751 94.7006C18.9293 91.3912 20.0493 88.1938 21.9872 85.4618C25.5711 79.592 29.8316 74.1348 34.687 69.195C43.3076 59.8509 52.7441 51.1648 60.6849 41.2415C64.6875 36.3499 68.1339 31.055 70.9644 25.4486C73.5609 21.0194 74.4111 15.8295 73.3575 10.8401C72.5708 8.53428 70.9464 6.58305 68.7858 5.34866C66.6253 4.11428 64.0754 3.6806 61.6095 4.12813C59.0254 4.49441 56.5569 5.40868 54.3803 6.80558C52.2037 8.20249 50.3728 10.0475 49.0184 12.2088C47.5568 14.3884 46.5879 16.8425 46.1754 19.4101C45.763 21.9777 45.9163 24.6007 46.6253 27.1069C48.7122 32.7471 52.306 37.7513 57.0408 41.61C65.7702 49.6908 78.1981 56.4817 82.4132 68.0632C83.1626 69.7571 83.4702 71.6033 83.309 73.4392C83.1477 75.2752 82.5226 77.0447 81.4886 78.5918C79.0747 81.3894 75.9002 83.4773 72.3241 84.6195C68.7469 85.9882 64.9619 86.7796 61.12 86.9621C59.9506 86.9621 58.4005 86.6725 58.6453 85.2775C58.9383 84.4873 59.4686 83.7998 60.1682 83.3034C61.3284 82.2198 62.5741 81.2254 63.8938 80.329C73.6838 73.6171 86.2749 72.0641 97.5878 68.3527C100.292 67.4699 102.943 66.4418 105.529 65.2731L104.386 64.8257C105.447 67.9842 103.19 72.0904 105.474 74.8805C108.194 78.3286 112.626 75.2753 115.319 73.5118C122.96 68.3791 129.84 78.197 137.808 77.1441C147 75.9333 149.148 63.6675 149.692 56.5607C150.427 46.7164 150.372 35.8719 146.402 26.6331C142.758 18.1838 134.899 10.9981 125.027 10.5769C124.896 10.5828 124.768 10.6195 124.654 10.6836C124.54 10.7478 124.444 10.8376 124.374 10.9454C120.757 16.973 124.021 24.1062 126.577 29.7917C129.886 37.0389 133.571 44.1197 137.618 51.0068C145.586 64.9046 154.261 78.5392 160.135 93.4372C161.722 97.2419 162.942 101.181 163.779 105.203C164.146 107.281 164.337 109.385 164.35 111.494C164.466 112.523 164.402 113.565 164.16 114.573C163.67 115.416 162.311 115.837 161.44 116.205C154.071 119.285 145.613 118.574 137.89 117.311C121.466 114.518 105.284 110.523 89.4838 105.361C71.2186 99.5364 53.4594 92.3192 36.373 83.7772C35.394 83.2771 34.5238 84.6984 35.5028 85.1985C58.9433 96.9734 83.6477 106.224 109.173 112.784C115.672 114.442 122.253 115.942 128.861 117.258C134.703 118.571 140.64 119.451 146.619 119.89C152.128 120.306 157.657 119.402 162.719 117.258C163.732 116.953 164.661 116.432 165.438 115.732C165.879 114.371 166.009 112.934 165.819 111.52C165.799 108.507 165.434 105.506 164.731 102.571C161.875 90.6471 155.648 79.3551 149.638 68.7212C143.628 58.0873 136.721 47.006 131.091 35.714C128.372 30.2918 124.945 24.2115 124.401 18.1049C124.204 16.557 124.353 14.9862 124.837 13.4986C125.136 12.6563 125.217 12.2615 126.033 12.0509C126.958 11.9981 127.884 12.1325 128.753 12.4457C131.523 13.1291 134.122 14.3466 136.394 16.0255C146.783 23.8693 148.469 37.4775 148.387 49.4275C148.387 58.4558 146.864 80.5396 131.934 74.7489C127.882 73.1696 123.776 70.1163 119.235 70.4585C116.902 70.836 114.726 71.8391 112.953 73.3538C112.3 73.9289 111.528 74.3626 110.689 74.6259C109.85 74.8891 108.962 74.9759 108.085 74.8805C106.154 74.3541 105.964 72.4852 106.045 70.8796C106.422 68.7527 106.404 66.5778 105.991 64.4572C105.953 64.3502 105.892 64.2523 105.811 64.1702C105.731 64.0882 105.633 64.0237 105.525 63.9813C105.417 63.9389 105.3 63.9194 105.184 63.9243C105.067 63.9292 104.953 63.9583 104.849 64.0097C92.9919 69.4319 79.5306 70.5111 67.8642 76.3018C65.2043 77.6014 62.7123 79.2005 60.4401 81.0661C58.89 82.3558 56.1162 84.5931 57.0408 86.9358C57.9654 89.2784 61.827 88.4887 63.8122 88.2518C67.4261 87.7856 70.9521 86.8194 74.2821 85.3828C79.9929 82.9086 85.1599 78.6445 84.6976 72.0378C84.2353 65.431 79.8298 60.0878 75.4515 55.6657C71.0732 51.2437 65.6071 47.2428 60.6849 43.0314C55.246 38.4251 49.8071 33.0292 47.9579 26.0803C47.2243 22.7897 47.4943 19.3636 48.7351 16.2188C49.9758 13.0739 52.1339 10.3457 54.9468 8.3659C60.5217 4.39134 70.3117 4.20709 71.9978 12.2878C73.3303 18.8156 69.4143 25.5802 66.0694 30.9235C62.2458 36.9027 57.8675 42.5324 52.9888 47.743C43.6068 58.0347 33.0009 67.3788 24.6522 78.5129C22.3215 81.5441 20.351 84.8198 18.7782 88.2782C17.4859 90.5295 16.9534 93.1157 17.2553 95.6745C18.5335 101.597 26.9909 98.3067 30.499 96.4642C42.7637 89.8311 46.4078 74.6962 43.226 62.2461C41.8663 56.8502 38.7117 51.428 33.0281 49.4802C30.633 48.7076 28.0813 48.5028 25.5874 48.883C23.0936 49.2631 20.7304 50.2172 18.6966 51.6649C16.7487 53.0072 15.201 54.8231 14.2095 56.9292C14.1267 57.0976 14.106 57.2884 14.1509 57.4698C14.1957 57.6512 14.3035 57.8122 14.4561 57.9261C14.6087 58.04 14.797 58.0998 14.9897 58.0956C15.1823 58.0914 15.3677 58.0235 15.5149 57.9031C23.6857 50.2906 29.0783 40.3135 30.8797 29.4758C31.7228 24.2872 31.7228 19.003 30.8797 13.8145C30.1999 9.39244 28.813 4.20709 24.8698 1.36436C23.9826 0.781107 22.9853 0.372878 21.935 0.163033C20.8847 -0.0468126 19.8019 -0.0541558 18.7486 0.141423C17.6954 0.337002 16.6923 0.731665 15.7968 1.30283C14.9012 1.874 14.1308 2.61046 13.5297 3.47009C10.2107 8.2035 7.78883 13.471 6.37753 19.0261C2.58721 31.1699 0.483834 43.748 0.1228 56.4291C-0.248848 71.2094 0.223242 85.9983 1.53691 100.728C1.57157 100.91 1.67079 101.074 1.81734 101.192C1.96389 101.31 2.14851 101.374 2.33915 101.374C2.52979 101.374 2.71441 101.31 2.86096 101.192C3.00751 101.074 3.10672 100.91 3.14139 100.728C6.2395 76.4859 7.4123 52.0492 6.64947 27.6333C6.64947 27.4867 6.5893 27.3461 6.4822 27.2424C6.37511 27.1388 6.22985 27.0805 6.07839 27.0805C5.92693 27.0805 5.78167 27.1388 5.67457 27.2424C5.56747 27.3461 5.5073 27.4867 5.5073 27.6333Z" fill="#231F20"/>
</svg>
