<svg width="40" height="40" viewBox="0 0 40 40" fill="none" xmlns="http://www.w3.org/2000/svg">
<mask id="mask0" mask-type="alpha" maskUnits="userSpaceOnUse" x="13" y="13" width="14" height="14">
<path d="M27 14.41L25.59 13L20 18.59L14.41 13L13 14.41L18.59 20L13 25.59L14.41 27L20 21.41L25.59 27L27 25.59L21.41 20L27 14.41Z" fill="black"/>
</mask>
<g mask="url(#mask0)">
<rect width="40" height="40" fill="white"/>
</g>
</svg>
