<svg width="49" height="48" viewBox="0 0 49 48" fill="none" xmlns="http://www.w3.org/2000/svg">
<circle cx="24.3125" cy="24" r="23" stroke="#00CB50" stroke-width="2"/>
<path d="M16.9102 16C15.8602 16 15 16.8602 15 17.9102V26.0898C15 27.1398 15.8602 28 16.9102 28H31.0898C32.1398 28 33 27.1398 33 26.0898V17.9102C33 16.8602 32.1398 16 31.0898 16H16.9102ZM19 19H29V21H19V19ZM19 23H26V25H19V23ZM14 30V32H34V30H14Z" fill="#00CB50"/>
</svg>
