<svg width="49" height="48" viewBox="0 0 49 48" fill="none" xmlns="http://www.w3.org/2000/svg">
<circle cx="24.3125" cy="24" r="23" stroke="#00CB50" stroke-width="2"/>
<path d="M22.0525 24.27L21.1725 26.76H22.9225L22.0525 24.27ZM22.0525 24.27L21.1725 26.76H22.9225L22.0525 24.27ZM26.3125 14H18.3125C17.2125 14 16.3125 14.9 16.3125 16V32C16.3125 33.1 17.2125 34 18.3125 34H30.3125C31.4125 34 32.3125 33.1 32.3125 32V20L26.3125 14ZM23.7025 29L23.2125 27.6H20.8825L20.3925 29H19.3125L21.5825 23H22.5225L24.7925 29H23.7025ZM29.3125 26.5H27.8125V28H26.8125V26.5H25.3125V25.5H26.8125V24H27.8125V25.5H29.3125V26.5ZM25.3125 21V15.5L30.8125 21H25.3125ZM21.1725 26.76H22.9225L22.0525 24.27L21.1725 26.76Z" fill="#00CB50"/>
</svg>
