<svg width="49" height="48" viewBox="0 0 49 48" fill="none" xmlns="http://www.w3.org/2000/svg">
<circle cx="24.1055" cy="24" r="23" stroke="#00CB50" stroke-width="2"/>
<path d="M18 14C16.9 14 16 14.9 16 16V32C16 33.1 16.9 34 18 34H29.1719L25 29.8281V25H29.8281L32 27.1719V20L26 14H18ZM27 27V29L32.1465 34.1465L34.1465 32.1465L29 27H27ZM34.8535 32.8535L32.8535 34.8535L33.8535 35.8535C34.0485 36.0485 34.3655 36.0485 34.5605 35.8535L35.8535 34.5605C36.0485 34.3645 36.0485 34.0485 35.8535 33.8535L34.8535 32.8535Z" fill="#00CB50"/>
</svg>
