<svg width="49" height="48" viewBox="0 0 49 48" fill="none" xmlns="http://www.w3.org/2000/svg">
<circle cx="24.1055" cy="24" r="23" stroke="#00CB50" stroke-width="2"/>
<path d="M24.5 14C22.77 14 21.1706 14.8099 20.1406 16.1699C19.7706 16.0599 19.39 16 19 16C16.95 16 15.2593 17.5493 15.0293 19.5293C13.7893 20.2293 13 21.55 13 23C13 25.04 14.5395 26.7307 16.5195 26.9707C17.2195 28.2107 18.54 29 20 29C20.48 29 20.9604 28.91 21.4004 28.75C21.9104 29.79 22.86 30.5791 24 30.8691V34H30V33C30 31.06 30.75 30 31 30C32.65 30 34 28.65 34 27C34 26.71 33.9591 26.4206 33.8691 26.1406C34.5991 25.2506 35 24.14 35 23C35 21.91 34.6309 20.8505 33.9609 19.9805C33.7009 17.1605 31.37 15 28.5 15C28.25 15 27.9907 15.0205 27.7207 15.0605C26.7807 14.3705 25.65 14 24.5 14ZM26.4004 19H27.5996C27.7296 19 27.8396 19.1005 27.8496 19.2305L27.9297 20.1602C28.3297 20.2902 28.69 20.4995 29 20.7695L29.8398 20.3809C29.8698 20.3609 29.9092 20.3496 29.9492 20.3496C30.0292 20.3496 30.1202 20.4005 30.1602 20.4805L30.7695 21.5195C30.8295 21.6295 30.7995 21.7796 30.6895 21.8496L29.9297 22.3809C29.9797 22.5809 30 22.79 30 23C30 23.21 29.9797 23.4191 29.9297 23.6191L30.6895 24.1504C30.7995 24.2204 30.8295 24.3605 30.7695 24.4805L30.1602 25.5195C30.1202 25.5995 30.0292 25.6504 29.9492 25.6504C29.9092 25.6504 29.8698 25.6391 29.8398 25.6191L29 25.2305C28.69 25.5005 28.3297 25.7098 27.9297 25.8398L27.8496 26.7695C27.8396 26.8995 27.7296 27 27.5996 27H26.4004C26.2704 27 26.1604 26.8995 26.1504 26.7695L26.0703 25.8398C25.6703 25.7098 25.31 25.5005 25 25.2305L24.1602 25.6191C24.1302 25.6391 24.0908 25.6504 24.0508 25.6504C23.9708 25.6504 23.8798 25.5995 23.8398 25.5195L23.2305 24.4805C23.1705 24.3705 23.2005 24.2204 23.3105 24.1504L24.0703 23.6191C24.0203 23.4191 24 23.21 24 23C24 22.79 24.0203 22.5809 24.0703 22.3809L23.3105 21.8496C23.2005 21.7796 23.1705 21.6395 23.2305 21.5195L23.8398 20.4805C23.8798 20.4005 23.9708 20.3496 24.0508 20.3496C24.0908 20.3496 24.1302 20.3609 24.1602 20.3809L25.0098 20.7695C25.3098 20.4995 25.6703 20.2902 26.0703 20.1602L26.1504 19.2305C26.1604 19.1005 26.2704 19 26.4004 19ZM27 21.5C26.6022 21.5 26.2206 21.658 25.9393 21.9393C25.658 22.2206 25.5 22.6022 25.5 23C25.5 23.3978 25.658 23.7794 25.9393 24.0607C26.2206 24.342 26.6022 24.5 27 24.5C27.3978 24.5 27.7794 24.342 28.0607 24.0607C28.342 23.7794 28.5 23.3978 28.5 23C28.5 22.6022 28.342 22.2206 28.0607 21.9393C27.7794 21.658 27.3978 21.5 27 21.5Z" fill="#00CB50"/>
</svg>
